-- Merging decision tree log ---
manifest
ADDED from G:\Meet\AndroidDeme\FacebookAdDemo\app\src\main\AndroidManifest.xml:2:1-24:12
INJECTED from G:\Meet\AndroidDeme\FacebookAdDemo\app\src\main\AndroidManifest.xml:2:1-24:12
INJECTED from G:\Meet\AndroidDeme\FacebookAdDemo\app\src\main\AndroidManifest.xml:2:1-24:12
INJECTED from G:\Meet\AndroidDeme\FacebookAdDemo\app\src\main\AndroidManifest.xml:2:1-24:12
MERGED from [com.google.android.material:material:1.4.0] C:\Users\Axon_002\.gradle\caches\transforms-1\files-1.1\material-1.4.0.aar\881f221ba634693d83cbf76ef3f6ef4c\AndroidManifest.xml:17:1-24:12
MERGED from [androidx.constraintlayout:constraintlayout:2.1.1] C:\Users\Axon_002\.gradle\caches\transforms-1\files-1.1\constraintlayout-2.1.1.aar\3602650080e44d4494acbcb984fae1b3\AndroidManifest.xml:2:1-11:12
MERGED from [androidx.appcompat:appcompat:1.3.1] C:\Users\Axon_002\.gradle\caches\transforms-1\files-1.1\appcompat-1.3.1.aar\601d19f2c707886fc71dce80175f8d97\AndroidManifest.xml:17:1-24:12
MERGED from [com.facebook.android:audience-network-sdk:5.9.1] C:\Users\Axon_002\.gradle\caches\transforms-1\files-1.1\jetified-audience-network-sdk-5.9.1.aar\6432c1318a030ba8ce9fac0dc0a6dfde\AndroidManifest.xml:2:1-27:12
MERGED from [androidx.viewpager2:viewpager2:1.0.0] C:\Users\Axon_002\.gradle\caches\transforms-1\files-1.1\viewpager2-1.0.0.aar\aaeb4a1b576bfdd1202796a8f01ec09e\AndroidManifest.xml:17:1-24:12
MERGED from [com.google.android.gms:play-services-basement:11.0.4] C:\Users\Axon_002\.gradle\caches\transforms-1\files-1.1\jetified-play-services-basement-11.0.4.aar\d3b69b5119ab2525f9b9b9f4f73c155d\AndroidManifest.xml:16:1-23:12
MERGED from [androidx.legacy:legacy-support-v4:1.0.0] C:\Users\Axon_002\.gradle\caches\transforms-1\files-1.1\legacy-support-v4-1.0.0.aar\2f420b5d7b594a599b0c71ab2ac6f624\AndroidManifest.xml:17:1-22:12
MERGED from [androidx.fragment:fragment:1.3.6] C:\Users\Axon_002\.gradle\caches\transforms-1\files-1.1\fragment-1.3.6.aar\b7e8f83507c2501aa4d0a7d78c65bb3d\AndroidManifest.xml:17:1-24:12
MERGED from [androidx.activity:activity:1.2.4] C:\Users\Axon_002\.gradle\caches\transforms-1\files-1.1\activity-1.2.4.aar\d91b40a0a0b648d35a45f6322b358a37\AndroidManifest.xml:17:1-24:12
MERGED from [androidx.appcompat:appcompat-resources:1.3.1] C:\Users\Axon_002\.gradle\caches\transforms-1\files-1.1\appcompat-resources-1.3.1.aar\a74643fa0b5f226ca47a246005366c2d\AndroidManifest.xml:17:1-24:12
MERGED from [androidx.legacy:legacy-support-core-ui:1.0.0] C:\Users\Axon_002\.gradle\caches\transforms-1\files-1.1\legacy-support-core-ui-1.0.0.aar\f9b91ee5272b005318e0a2f4e4fead95\AndroidManifest.xml:17:1-22:12
MERGED from [androidx.drawerlayout:drawerlayout:1.0.0] C:\Users\Axon_002\.gradle\caches\transforms-1\files-1.1\drawerlayout-1.0.0.aar\65ba29664991bc3ac38410c720c82829\AndroidManifest.xml:17:1-22:12
MERGED from [androidx.coordinatorlayout:coordinatorlayout:1.1.0] C:\Users\Axon_002\.gradle\caches\transforms-1\files-1.1\coordinatorlayout-1.1.0.aar\511e187a65c9280f3d031dd2712a5b48\AndroidManifest.xml:17:1-24:12
MERGED from [androidx.dynamicanimation:dynamicanimation:1.0.0] C:\Users\Axon_002\.gradle\caches\transforms-1\files-1.1\dynamicanimation-1.0.0.aar\0e32386e19041afedfa09be3a256387e\AndroidManifest.xml:17:1-22:12
MERGED from [androidx.transition:transition:1.2.0] C:\Users\Axon_002\.gradle\caches\transforms-1\files-1.1\transition-1.2.0.aar\3dbef375177c2c4fffc94cc6f21b6e77\AndroidManifest.xml:17:1-24:12
MERGED from [androidx.vectordrawable:vectordrawable-animated:1.1.0] C:\Users\Axon_002\.gradle\caches\transforms-1\files-1.1\vectordrawable-animated-1.1.0.aar\373990620ab8e62644001211c6e443e5\AndroidManifest.xml:17:1-24:12
MERGED from [androidx.vectordrawable:vectordrawable:1.1.0] C:\Users\Axon_002\.gradle\caches\transforms-1\files-1.1\vectordrawable-1.1.0.aar\b187e1c55f2ce3ae9358a483c20e5208\AndroidManifest.xml:17:1-24:12
MERGED from [androidx.viewpager:viewpager:1.0.0] C:\Users\Axon_002\.gradle\caches\transforms-1\files-1.1\viewpager-1.0.0.aar\baaa11e26f22507242c469e9181c4287\AndroidManifest.xml:17:1-22:12
MERGED from [androidx.legacy:legacy-support-core-utils:1.0.0] C:\Users\Axon_002\.gradle\caches\transforms-1\files-1.1\legacy-support-core-utils-1.0.0.aar\5a3766560c39da76bde180b0cc808da6\AndroidManifest.xml:17:1-22:12
MERGED from [androidx.loader:loader:1.0.0] C:\Users\Axon_002\.gradle\caches\transforms-1\files-1.1\loader-1.0.0.aar\8a18f5b6934538cc6f8803d30d1c045b\AndroidManifest.xml:17:1-22:12
MERGED from [androidx.recyclerview:recyclerview:1.1.0] C:\Users\Axon_002\.gradle\caches\transforms-1\files-1.1\recyclerview-1.1.0.aar\9fb33f941f6e13a5ffe9f5aa525f67f4\AndroidManifest.xml:17:1-24:12
MERGED from [androidx.slidingpanelayout:slidingpanelayout:1.0.0] C:\Users\Axon_002\.gradle\caches\transforms-1\files-1.1\slidingpanelayout-1.0.0.aar\b07c1c041e989bf73b3fedc18a105cee\AndroidManifest.xml:17:1-22:12
MERGED from [androidx.customview:customview:1.0.0] C:\Users\Axon_002\.gradle\caches\transforms-1\files-1.1\customview-1.0.0.aar\b997fd73a7153118c9bc6ff9040d674f\AndroidManifest.xml:17:1-22:12
MERGED from [androidx.media:media:1.0.0] C:\Users\Axon_002\.gradle\caches\transforms-1\files-1.1\media-1.0.0.aar\d4e35dde7901f0cf918903677e0cd1ab\AndroidManifest.xml:17:1-22:12
MERGED from [androidx.swiperefreshlayout:swiperefreshlayout:1.0.0] C:\Users\Axon_002\.gradle\caches\transforms-1\files-1.1\swiperefreshlayout-1.0.0.aar\70299de44e117a219944e6d41df7559c\AndroidManifest.xml:17:1-22:12
MERGED from [androidx.asynclayoutinflater:asynclayoutinflater:1.0.0] C:\Users\Axon_002\.gradle\caches\transforms-1\files-1.1\asynclayoutinflater-1.0.0.aar\b0fe5c273f21db4c44e7899ae95cc08c\AndroidManifest.xml:17:1-22:12
MERGED from [androidx.core:core:1.5.0] C:\Users\Axon_002\.gradle\caches\transforms-1\files-1.1\core-1.5.0.aar\8e09985b3d3fb80df80411d8c1e24064\AndroidManifest.xml:17:1-26:12
MERGED from [androidx.cursoradapter:cursoradapter:1.0.0] C:\Users\Axon_002\.gradle\caches\transforms-1\files-1.1\cursoradapter-1.0.0.aar\c806c2fc5f5d85a78390c7208abe319c\AndroidManifest.xml:17:1-22:12
MERGED from [androidx.lifecycle:lifecycle-viewmodel-savedstate:2.3.1] C:\Users\Axon_002\.gradle\caches\transforms-1\files-1.1\lifecycle-viewmodel-savedstate-2.3.1.aar\fa9d675cd1631fca772ed4666ef45e9b\AndroidManifest.xml:17:1-24:12
MERGED from [androidx.savedstate:savedstate:1.1.0] C:\Users\Axon_002\.gradle\caches\transforms-1\files-1.1\savedstate-1.1.0.aar\4456d9c63398b673a0260eaede139daf\AndroidManifest.xml:17:1-24:12
MERGED from [androidx.lifecycle:lifecycle-runtime:2.3.1] C:\Users\Axon_002\.gradle\caches\transforms-1\files-1.1\lifecycle-runtime-2.3.1.aar\b909ed482507d4996101a00ea834669f\AndroidManifest.xml:17:1-24:12
MERGED from [androidx.lifecycle:lifecycle-viewmodel:2.3.1] C:\Users\Axon_002\.gradle\caches\transforms-1\files-1.1\lifecycle-viewmodel-2.3.1.aar\8cfbc21e94e96a3980fddf2476cda747\AndroidManifest.xml:17:1-24:12
MERGED from [androidx.cardview:cardview:1.0.0] C:\Users\Axon_002\.gradle\caches\transforms-1\files-1.1\cardview-1.0.0.aar\5bda80eb9eec5512eb51f359573915e9\AndroidManifest.xml:17:1-22:12
MERGED from [androidx.versionedparcelable:versionedparcelable:1.1.1] C:\Users\Axon_002\.gradle\caches\transforms-1\files-1.1\versionedparcelable-1.1.1.aar\b28d7c2ce8c641cce346a0e8cf244678\AndroidManifest.xml:17:1-27:12
MERGED from [androidx.tracing:tracing:1.0.0] C:\Users\Axon_002\.gradle\caches\transforms-1\files-1.1\tracing-1.0.0.aar\a198ebc6c9353c6671b5af0c0fe423ad\AndroidManifest.xml:17:1-24:12
MERGED from [androidx.lifecycle:lifecycle-livedata:2.0.0] C:\Users\Axon_002\.gradle\caches\transforms-1\files-1.1\lifecycle-livedata-2.0.0.aar\f03137644e9d46f4c07580af02d2b6b2\AndroidManifest.xml:17:1-22:12
MERGED from [androidx.lifecycle:lifecycle-livedata-core:2.3.1] C:\Users\Axon_002\.gradle\caches\transforms-1\files-1.1\lifecycle-livedata-core-2.3.1.aar\38339650193c5bf92392c2da4f232426\AndroidManifest.xml:17:1-24:12
MERGED from [androidx.arch.core:core-runtime:2.1.0] C:\Users\Axon_002\.gradle\caches\transforms-1\files-1.1\core-runtime-2.1.0.aar\a95d382fa6218e42ef8c321eb85cf20f\AndroidManifest.xml:17:1-24:12
MERGED from [androidx.interpolator:interpolator:1.0.0] C:\Users\Axon_002\.gradle\caches\transforms-1\files-1.1\interpolator-1.0.0.aar\d1476559b699a759ea9f8850a45e0f20\AndroidManifest.xml:17:1-22:12
MERGED from [androidx.documentfile:documentfile:1.0.0] C:\Users\Axon_002\.gradle\caches\transforms-1\files-1.1\documentfile-1.0.0.aar\2d0a0d292c487a8e8e2b3c3fd4252c55\AndroidManifest.xml:17:1-22:12
MERGED from [androidx.localbroadcastmanager:localbroadcastmanager:1.0.0] C:\Users\Axon_002\.gradle\caches\transforms-1\files-1.1\localbroadcastmanager-1.0.0.aar\13bd6670bd244a1aea54aed213272498\AndroidManifest.xml:17:1-22:12
MERGED from [androidx.print:print:1.0.0] C:\Users\Axon_002\.gradle\caches\transforms-1\files-1.1\print-1.0.0.aar\b6a14b55f1aee4392f2799bb6e936003\AndroidManifest.xml:17:1-22:12
MERGED from [androidx.annotation:annotation-experimental:1.0.0] C:\Users\Axon_002\.gradle\caches\transforms-1\files-1.1\annotation-experimental-1.0.0.aar\ea2876fdf52ec84fc5048e5e329e46ff\AndroidManifest.xml:17:1-24:12
INJECTED from G:\Meet\AndroidDeme\FacebookAdDemo\app\src\main\AndroidManifest.xml:2:1-24:12
INJECTED from G:\Meet\AndroidDeme\FacebookAdDemo\app\src\main\AndroidManifest.xml:2:1-24:12
INJECTED from G:\Meet\AndroidDeme\FacebookAdDemo\app\src\main\AndroidManifest.xml:2:1-24:12
	package
		ADDED from G:\Meet\AndroidDeme\FacebookAdDemo\app\src\main\AndroidManifest.xml:3:5-41
		INJECTED from G:\Meet\AndroidDeme\FacebookAdDemo\app\src\main\AndroidManifest.xml
		INJECTED from G:\Meet\AndroidDeme\FacebookAdDemo\app\src\main\AndroidManifest.xml
	android:versionName
		INJECTED from G:\Meet\AndroidDeme\FacebookAdDemo\app\src\main\AndroidManifest.xml
		ADDED from G:\Meet\AndroidDeme\FacebookAdDemo\app\src\main\AndroidManifest.xml:2:1-24:12
		INJECTED from G:\Meet\AndroidDeme\FacebookAdDemo\app\src\main\AndroidManifest.xml
	android:versionCode
		INJECTED from G:\Meet\AndroidDeme\FacebookAdDemo\app\src\main\AndroidManifest.xml
		ADDED from G:\Meet\AndroidDeme\FacebookAdDemo\app\src\main\AndroidManifest.xml:2:1-24:12
		INJECTED from G:\Meet\AndroidDeme\FacebookAdDemo\app\src\main\AndroidManifest.xml
	xmlns:android
		ADDED from G:\Meet\AndroidDeme\FacebookAdDemo\app\src\main\AndroidManifest.xml:2:11-69
application
ADDED from G:\Meet\AndroidDeme\FacebookAdDemo\app\src\main\AndroidManifest.xml:5:5-22:19
MERGED from [com.google.android.material:material:1.4.0] C:\Users\Axon_002\.gradle\caches\transforms-1\files-1.1\material-1.4.0.aar\881f221ba634693d83cbf76ef3f6ef4c\AndroidManifest.xml:22:5-20
MERGED from [com.google.android.material:material:1.4.0] C:\Users\Axon_002\.gradle\caches\transforms-1\files-1.1\material-1.4.0.aar\881f221ba634693d83cbf76ef3f6ef4c\AndroidManifest.xml:22:5-20
MERGED from [androidx.constraintlayout:constraintlayout:2.1.1] C:\Users\Axon_002\.gradle\caches\transforms-1\files-1.1\constraintlayout-2.1.1.aar\3602650080e44d4494acbcb984fae1b3\AndroidManifest.xml:9:5-20
MERGED from [androidx.constraintlayout:constraintlayout:2.1.1] C:\Users\Axon_002\.gradle\caches\transforms-1\files-1.1\constraintlayout-2.1.1.aar\3602650080e44d4494acbcb984fae1b3\AndroidManifest.xml:9:5-20
MERGED from [com.facebook.android:audience-network-sdk:5.9.1] C:\Users\Axon_002\.gradle\caches\transforms-1\files-1.1\jetified-audience-network-sdk-5.9.1.aar\6432c1318a030ba8ce9fac0dc0a6dfde\AndroidManifest.xml:14:5-25:19
MERGED from [com.facebook.android:audience-network-sdk:5.9.1] C:\Users\Axon_002\.gradle\caches\transforms-1\files-1.1\jetified-audience-network-sdk-5.9.1.aar\6432c1318a030ba8ce9fac0dc0a6dfde\AndroidManifest.xml:14:5-25:19
MERGED from [com.google.android.gms:play-services-basement:11.0.4] C:\Users\Axon_002\.gradle\caches\transforms-1\files-1.1\jetified-play-services-basement-11.0.4.aar\d3b69b5119ab2525f9b9b9f4f73c155d\AndroidManifest.xml:19:5-21:19
MERGED from [com.google.android.gms:play-services-basement:11.0.4] C:\Users\Axon_002\.gradle\caches\transforms-1\files-1.1\jetified-play-services-basement-11.0.4.aar\d3b69b5119ab2525f9b9b9f4f73c155d\AndroidManifest.xml:19:5-21:19
MERGED from [androidx.core:core:1.5.0] C:\Users\Axon_002\.gradle\caches\transforms-1\files-1.1\core-1.5.0.aar\8e09985b3d3fb80df80411d8c1e24064\AndroidManifest.xml:24:5-89
MERGED from [androidx.core:core:1.5.0] C:\Users\Axon_002\.gradle\caches\transforms-1\files-1.1\core-1.5.0.aar\8e09985b3d3fb80df80411d8c1e24064\AndroidManifest.xml:24:5-89
MERGED from [androidx.versionedparcelable:versionedparcelable:1.1.1] C:\Users\Axon_002\.gradle\caches\transforms-1\files-1.1\versionedparcelable-1.1.1.aar\b28d7c2ce8c641cce346a0e8cf244678\AndroidManifest.xml:24:5-25:19
MERGED from [androidx.versionedparcelable:versionedparcelable:1.1.1] C:\Users\Axon_002\.gradle\caches\transforms-1\files-1.1\versionedparcelable-1.1.1.aar\b28d7c2ce8c641cce346a0e8cf244678\AndroidManifest.xml:24:5-25:19
	android:appComponentFactory
		ADDED from [androidx.core:core:1.5.0] C:\Users\Axon_002\.gradle\caches\transforms-1\files-1.1\core-1.5.0.aar\8e09985b3d3fb80df80411d8c1e24064\AndroidManifest.xml:24:18-86
	android:supportsRtl
		ADDED from G:\Meet\AndroidDeme\FacebookAdDemo\app\src\main\AndroidManifest.xml:10:9-35
	android:label
		ADDED from G:\Meet\AndroidDeme\FacebookAdDemo\app\src\main\AndroidManifest.xml:8:9-41
	android:hardwareAccelerated
		ADDED from G:\Meet\AndroidDeme\FacebookAdDemo\app\src\main\AndroidManifest.xml:11:9-43
	android:roundIcon
		ADDED from G:\Meet\AndroidDeme\FacebookAdDemo\app\src\main\AndroidManifest.xml:9:9-54
	android:icon
		ADDED from G:\Meet\AndroidDeme\FacebookAdDemo\app\src\main\AndroidManifest.xml:7:9-43
	android:allowBackup
		ADDED from G:\Meet\AndroidDeme\FacebookAdDemo\app\src\main\AndroidManifest.xml:6:9-35
	android:theme
		ADDED from G:\Meet\AndroidDeme\FacebookAdDemo\app\src\main\AndroidManifest.xml:12:9-52
activity#com.example.facebookaddemo.MainActivity
ADDED from G:\Meet\AndroidDeme\FacebookAdDemo\app\src\main\AndroidManifest.xml:13:9-21:20
	android:exported
		ADDED from G:\Meet\AndroidDeme\FacebookAdDemo\app\src\main\AndroidManifest.xml:15:13-36
	android:name
		ADDED from G:\Meet\AndroidDeme\FacebookAdDemo\app\src\main\AndroidManifest.xml:14:13-41
intent-filter#action:name:android.intent.action.MAIN+category:name:android.intent.category.LAUNCHER
ADDED from G:\Meet\AndroidDeme\FacebookAdDemo\app\src\main\AndroidManifest.xml:16:13-20:29
action#android.intent.action.MAIN
ADDED from G:\Meet\AndroidDeme\FacebookAdDemo\app\src\main\AndroidManifest.xml:17:17-69
	android:name
		ADDED from G:\Meet\AndroidDeme\FacebookAdDemo\app\src\main\AndroidManifest.xml:17:25-66
category#android.intent.category.LAUNCHER
ADDED from G:\Meet\AndroidDeme\FacebookAdDemo\app\src\main\AndroidManifest.xml:19:17-77
	android:name
		ADDED from G:\Meet\AndroidDeme\FacebookAdDemo\app\src\main\AndroidManifest.xml:19:27-74
uses-sdk
INJECTED from G:\Meet\AndroidDeme\FacebookAdDemo\app\src\main\AndroidManifest.xml reason: use-sdk injection requested
INJECTED from G:\Meet\AndroidDeme\FacebookAdDemo\app\src\main\AndroidManifest.xml
INJECTED from G:\Meet\AndroidDeme\FacebookAdDemo\app\src\main\AndroidManifest.xml
MERGED from [com.google.android.material:material:1.4.0] C:\Users\Axon_002\.gradle\caches\transforms-1\files-1.1\material-1.4.0.aar\881f221ba634693d83cbf76ef3f6ef4c\AndroidManifest.xml:20:5-44
MERGED from [com.google.android.material:material:1.4.0] C:\Users\Axon_002\.gradle\caches\transforms-1\files-1.1\material-1.4.0.aar\881f221ba634693d83cbf76ef3f6ef4c\AndroidManifest.xml:20:5-44
MERGED from [androidx.constraintlayout:constraintlayout:2.1.1] C:\Users\Axon_002\.gradle\caches\transforms-1\files-1.1\constraintlayout-2.1.1.aar\3602650080e44d4494acbcb984fae1b3\AndroidManifest.xml:5:5-7:41
MERGED from [androidx.constraintlayout:constraintlayout:2.1.1] C:\Users\Axon_002\.gradle\caches\transforms-1\files-1.1\constraintlayout-2.1.1.aar\3602650080e44d4494acbcb984fae1b3\AndroidManifest.xml:5:5-7:41
MERGED from [androidx.appcompat:appcompat:1.3.1] C:\Users\Axon_002\.gradle\caches\transforms-1\files-1.1\appcompat-1.3.1.aar\601d19f2c707886fc71dce80175f8d97\AndroidManifest.xml:20:5-22:41
MERGED from [androidx.appcompat:appcompat:1.3.1] C:\Users\Axon_002\.gradle\caches\transforms-1\files-1.1\appcompat-1.3.1.aar\601d19f2c707886fc71dce80175f8d97\AndroidManifest.xml:20:5-22:41
MERGED from [com.facebook.android:audience-network-sdk:5.9.1] C:\Users\Axon_002\.gradle\caches\transforms-1\files-1.1\jetified-audience-network-sdk-5.9.1.aar\6432c1318a030ba8ce9fac0dc0a6dfde\AndroidManifest.xml:7:5-9:41
MERGED from [com.facebook.android:audience-network-sdk:5.9.1] C:\Users\Axon_002\.gradle\caches\transforms-1\files-1.1\jetified-audience-network-sdk-5.9.1.aar\6432c1318a030ba8ce9fac0dc0a6dfde\AndroidManifest.xml:7:5-9:41
MERGED from [androidx.viewpager2:viewpager2:1.0.0] C:\Users\Axon_002\.gradle\caches\transforms-1\files-1.1\viewpager2-1.0.0.aar\aaeb4a1b576bfdd1202796a8f01ec09e\AndroidManifest.xml:20:5-22:41
MERGED from [androidx.viewpager2:viewpager2:1.0.0] C:\Users\Axon_002\.gradle\caches\transforms-1\files-1.1\viewpager2-1.0.0.aar\aaeb4a1b576bfdd1202796a8f01ec09e\AndroidManifest.xml:20:5-22:41
MERGED from [com.google.android.gms:play-services-basement:11.0.4] C:\Users\Axon_002\.gradle\caches\transforms-1\files-1.1\jetified-play-services-basement-11.0.4.aar\d3b69b5119ab2525f9b9b9f4f73c155d\AndroidManifest.xml:17:5-43
MERGED from [com.google.android.gms:play-services-basement:11.0.4] C:\Users\Axon_002\.gradle\caches\transforms-1\files-1.1\jetified-play-services-basement-11.0.4.aar\d3b69b5119ab2525f9b9b9f4f73c155d\AndroidManifest.xml:17:5-43
MERGED from [androidx.legacy:legacy-support-v4:1.0.0] C:\Users\Axon_002\.gradle\caches\transforms-1\files-1.1\legacy-support-v4-1.0.0.aar\2f420b5d7b594a599b0c71ab2ac6f624\AndroidManifest.xml:20:5-44
MERGED from [androidx.legacy:legacy-support-v4:1.0.0] C:\Users\Axon_002\.gradle\caches\transforms-1\files-1.1\legacy-support-v4-1.0.0.aar\2f420b5d7b594a599b0c71ab2ac6f624\AndroidManifest.xml:20:5-44
MERGED from [androidx.fragment:fragment:1.3.6] C:\Users\Axon_002\.gradle\caches\transforms-1\files-1.1\fragment-1.3.6.aar\b7e8f83507c2501aa4d0a7d78c65bb3d\AndroidManifest.xml:20:5-22:41
MERGED from [androidx.fragment:fragment:1.3.6] C:\Users\Axon_002\.gradle\caches\transforms-1\files-1.1\fragment-1.3.6.aar\b7e8f83507c2501aa4d0a7d78c65bb3d\AndroidManifest.xml:20:5-22:41
MERGED from [androidx.activity:activity:1.2.4] C:\Users\Axon_002\.gradle\caches\transforms-1\files-1.1\activity-1.2.4.aar\d91b40a0a0b648d35a45f6322b358a37\AndroidManifest.xml:20:5-22:41
MERGED from [androidx.activity:activity:1.2.4] C:\Users\Axon_002\.gradle\caches\transforms-1\files-1.1\activity-1.2.4.aar\d91b40a0a0b648d35a45f6322b358a37\AndroidManifest.xml:20:5-22:41
MERGED from [androidx.appcompat:appcompat-resources:1.3.1] C:\Users\Axon_002\.gradle\caches\transforms-1\files-1.1\appcompat-resources-1.3.1.aar\a74643fa0b5f226ca47a246005366c2d\AndroidManifest.xml:20:5-22:41
MERGED from [androidx.appcompat:appcompat-resources:1.3.1] C:\Users\Axon_002\.gradle\caches\transforms-1\files-1.1\appcompat-resources-1.3.1.aar\a74643fa0b5f226ca47a246005366c2d\AndroidManifest.xml:20:5-22:41
MERGED from [androidx.legacy:legacy-support-core-ui:1.0.0] C:\Users\Axon_002\.gradle\caches\transforms-1\files-1.1\legacy-support-core-ui-1.0.0.aar\f9b91ee5272b005318e0a2f4e4fead95\AndroidManifest.xml:20:5-44
MERGED from [androidx.legacy:legacy-support-core-ui:1.0.0] C:\Users\Axon_002\.gradle\caches\transforms-1\files-1.1\legacy-support-core-ui-1.0.0.aar\f9b91ee5272b005318e0a2f4e4fead95\AndroidManifest.xml:20:5-44
MERGED from [androidx.drawerlayout:drawerlayout:1.0.0] C:\Users\Axon_002\.gradle\caches\transforms-1\files-1.1\drawerlayout-1.0.0.aar\65ba29664991bc3ac38410c720c82829\AndroidManifest.xml:20:5-44
MERGED from [androidx.drawerlayout:drawerlayout:1.0.0] C:\Users\Axon_002\.gradle\caches\transforms-1\files-1.1\drawerlayout-1.0.0.aar\65ba29664991bc3ac38410c720c82829\AndroidManifest.xml:20:5-44
MERGED from [androidx.coordinatorlayout:coordinatorlayout:1.1.0] C:\Users\Axon_002\.gradle\caches\transforms-1\files-1.1\coordinatorlayout-1.1.0.aar\511e187a65c9280f3d031dd2712a5b48\AndroidManifest.xml:20:5-22:41
MERGED from [androidx.coordinatorlayout:coordinatorlayout:1.1.0] C:\Users\Axon_002\.gradle\caches\transforms-1\files-1.1\coordinatorlayout-1.1.0.aar\511e187a65c9280f3d031dd2712a5b48\AndroidManifest.xml:20:5-22:41
MERGED from [androidx.dynamicanimation:dynamicanimation:1.0.0] C:\Users\Axon_002\.gradle\caches\transforms-1\files-1.1\dynamicanimation-1.0.0.aar\0e32386e19041afedfa09be3a256387e\AndroidManifest.xml:20:5-44
MERGED from [androidx.dynamicanimation:dynamicanimation:1.0.0] C:\Users\Axon_002\.gradle\caches\transforms-1\files-1.1\dynamicanimation-1.0.0.aar\0e32386e19041afedfa09be3a256387e\AndroidManifest.xml:20:5-44
MERGED from [androidx.transition:transition:1.2.0] C:\Users\Axon_002\.gradle\caches\transforms-1\files-1.1\transition-1.2.0.aar\3dbef375177c2c4fffc94cc6f21b6e77\AndroidManifest.xml:20:5-22:41
MERGED from [androidx.transition:transition:1.2.0] C:\Users\Axon_002\.gradle\caches\transforms-1\files-1.1\transition-1.2.0.aar\3dbef375177c2c4fffc94cc6f21b6e77\AndroidManifest.xml:20:5-22:41
MERGED from [androidx.vectordrawable:vectordrawable-animated:1.1.0] C:\Users\Axon_002\.gradle\caches\transforms-1\files-1.1\vectordrawable-animated-1.1.0.aar\373990620ab8e62644001211c6e443e5\AndroidManifest.xml:20:5-22:41
MERGED from [androidx.vectordrawable:vectordrawable-animated:1.1.0] C:\Users\Axon_002\.gradle\caches\transforms-1\files-1.1\vectordrawable-animated-1.1.0.aar\373990620ab8e62644001211c6e443e5\AndroidManifest.xml:20:5-22:41
MERGED from [androidx.vectordrawable:vectordrawable:1.1.0] C:\Users\Axon_002\.gradle\caches\transforms-1\files-1.1\vectordrawable-1.1.0.aar\b187e1c55f2ce3ae9358a483c20e5208\AndroidManifest.xml:20:5-22:41
MERGED from [androidx.vectordrawable:vectordrawable:1.1.0] C:\Users\Axon_002\.gradle\caches\transforms-1\files-1.1\vectordrawable-1.1.0.aar\b187e1c55f2ce3ae9358a483c20e5208\AndroidManifest.xml:20:5-22:41
MERGED from [androidx.viewpager:viewpager:1.0.0] C:\Users\Axon_002\.gradle\caches\transforms-1\files-1.1\viewpager-1.0.0.aar\baaa11e26f22507242c469e9181c4287\AndroidManifest.xml:20:5-44
MERGED from [androidx.viewpager:viewpager:1.0.0] C:\Users\Axon_002\.gradle\caches\transforms-1\files-1.1\viewpager-1.0.0.aar\baaa11e26f22507242c469e9181c4287\AndroidManifest.xml:20:5-44
MERGED from [androidx.legacy:legacy-support-core-utils:1.0.0] C:\Users\Axon_002\.gradle\caches\transforms-1\files-1.1\legacy-support-core-utils-1.0.0.aar\5a3766560c39da76bde180b0cc808da6\AndroidManifest.xml:20:5-44
MERGED from [androidx.legacy:legacy-support-core-utils:1.0.0] C:\Users\Axon_002\.gradle\caches\transforms-1\files-1.1\legacy-support-core-utils-1.0.0.aar\5a3766560c39da76bde180b0cc808da6\AndroidManifest.xml:20:5-44
MERGED from [androidx.loader:loader:1.0.0] C:\Users\Axon_002\.gradle\caches\transforms-1\files-1.1\loader-1.0.0.aar\8a18f5b6934538cc6f8803d30d1c045b\AndroidManifest.xml:20:5-44
MERGED from [androidx.loader:loader:1.0.0] C:\Users\Axon_002\.gradle\caches\transforms-1\files-1.1\loader-1.0.0.aar\8a18f5b6934538cc6f8803d30d1c045b\AndroidManifest.xml:20:5-44
MERGED from [androidx.recyclerview:recyclerview:1.1.0] C:\Users\Axon_002\.gradle\caches\transforms-1\files-1.1\recyclerview-1.1.0.aar\9fb33f941f6e13a5ffe9f5aa525f67f4\AndroidManifest.xml:20:5-22:41
MERGED from [androidx.recyclerview:recyclerview:1.1.0] C:\Users\Axon_002\.gradle\caches\transforms-1\files-1.1\recyclerview-1.1.0.aar\9fb33f941f6e13a5ffe9f5aa525f67f4\AndroidManifest.xml:20:5-22:41
MERGED from [androidx.slidingpanelayout:slidingpanelayout:1.0.0] C:\Users\Axon_002\.gradle\caches\transforms-1\files-1.1\slidingpanelayout-1.0.0.aar\b07c1c041e989bf73b3fedc18a105cee\AndroidManifest.xml:20:5-44
MERGED from [androidx.slidingpanelayout:slidingpanelayout:1.0.0] C:\Users\Axon_002\.gradle\caches\transforms-1\files-1.1\slidingpanelayout-1.0.0.aar\b07c1c041e989bf73b3fedc18a105cee\AndroidManifest.xml:20:5-44
MERGED from [androidx.customview:customview:1.0.0] C:\Users\Axon_002\.gradle\caches\transforms-1\files-1.1\customview-1.0.0.aar\b997fd73a7153118c9bc6ff9040d674f\AndroidManifest.xml:20:5-44
MERGED from [androidx.customview:customview:1.0.0] C:\Users\Axon_002\.gradle\caches\transforms-1\files-1.1\customview-1.0.0.aar\b997fd73a7153118c9bc6ff9040d674f\AndroidManifest.xml:20:5-44
MERGED from [androidx.media:media:1.0.0] C:\Users\Axon_002\.gradle\caches\transforms-1\files-1.1\media-1.0.0.aar\d4e35dde7901f0cf918903677e0cd1ab\AndroidManifest.xml:20:5-44
MERGED from [androidx.media:media:1.0.0] C:\Users\Axon_002\.gradle\caches\transforms-1\files-1.1\media-1.0.0.aar\d4e35dde7901f0cf918903677e0cd1ab\AndroidManifest.xml:20:5-44
MERGED from [androidx.swiperefreshlayout:swiperefreshlayout:1.0.0] C:\Users\Axon_002\.gradle\caches\transforms-1\files-1.1\swiperefreshlayout-1.0.0.aar\70299de44e117a219944e6d41df7559c\AndroidManifest.xml:20:5-44
MERGED from [androidx.swiperefreshlayout:swiperefreshlayout:1.0.0] C:\Users\Axon_002\.gradle\caches\transforms-1\files-1.1\swiperefreshlayout-1.0.0.aar\70299de44e117a219944e6d41df7559c\AndroidManifest.xml:20:5-44
MERGED from [androidx.asynclayoutinflater:asynclayoutinflater:1.0.0] C:\Users\Axon_002\.gradle\caches\transforms-1\files-1.1\asynclayoutinflater-1.0.0.aar\b0fe5c273f21db4c44e7899ae95cc08c\AndroidManifest.xml:20:5-44
MERGED from [androidx.asynclayoutinflater:asynclayoutinflater:1.0.0] C:\Users\Axon_002\.gradle\caches\transforms-1\files-1.1\asynclayoutinflater-1.0.0.aar\b0fe5c273f21db4c44e7899ae95cc08c\AndroidManifest.xml:20:5-44
MERGED from [androidx.core:core:1.5.0] C:\Users\Axon_002\.gradle\caches\transforms-1\files-1.1\core-1.5.0.aar\8e09985b3d3fb80df80411d8c1e24064\AndroidManifest.xml:20:5-22:41
MERGED from [androidx.core:core:1.5.0] C:\Users\Axon_002\.gradle\caches\transforms-1\files-1.1\core-1.5.0.aar\8e09985b3d3fb80df80411d8c1e24064\AndroidManifest.xml:20:5-22:41
MERGED from [androidx.cursoradapter:cursoradapter:1.0.0] C:\Users\Axon_002\.gradle\caches\transforms-1\files-1.1\cursoradapter-1.0.0.aar\c806c2fc5f5d85a78390c7208abe319c\AndroidManifest.xml:20:5-44
MERGED from [androidx.cursoradapter:cursoradapter:1.0.0] C:\Users\Axon_002\.gradle\caches\transforms-1\files-1.1\cursoradapter-1.0.0.aar\c806c2fc5f5d85a78390c7208abe319c\AndroidManifest.xml:20:5-44
MERGED from [androidx.lifecycle:lifecycle-viewmodel-savedstate:2.3.1] C:\Users\Axon_002\.gradle\caches\transforms-1\files-1.1\lifecycle-viewmodel-savedstate-2.3.1.aar\fa9d675cd1631fca772ed4666ef45e9b\AndroidManifest.xml:20:5-22:41
MERGED from [androidx.lifecycle:lifecycle-viewmodel-savedstate:2.3.1] C:\Users\Axon_002\.gradle\caches\transforms-1\files-1.1\lifecycle-viewmodel-savedstate-2.3.1.aar\fa9d675cd1631fca772ed4666ef45e9b\AndroidManifest.xml:20:5-22:41
MERGED from [androidx.savedstate:savedstate:1.1.0] C:\Users\Axon_002\.gradle\caches\transforms-1\files-1.1\savedstate-1.1.0.aar\4456d9c63398b673a0260eaede139daf\AndroidManifest.xml:20:5-22:41
MERGED from [androidx.savedstate:savedstate:1.1.0] C:\Users\Axon_002\.gradle\caches\transforms-1\files-1.1\savedstate-1.1.0.aar\4456d9c63398b673a0260eaede139daf\AndroidManifest.xml:20:5-22:41
MERGED from [androidx.lifecycle:lifecycle-runtime:2.3.1] C:\Users\Axon_002\.gradle\caches\transforms-1\files-1.1\lifecycle-runtime-2.3.1.aar\b909ed482507d4996101a00ea834669f\AndroidManifest.xml:20:5-22:41
MERGED from [androidx.lifecycle:lifecycle-runtime:2.3.1] C:\Users\Axon_002\.gradle\caches\transforms-1\files-1.1\lifecycle-runtime-2.3.1.aar\b909ed482507d4996101a00ea834669f\AndroidManifest.xml:20:5-22:41
MERGED from [androidx.lifecycle:lifecycle-viewmodel:2.3.1] C:\Users\Axon_002\.gradle\caches\transforms-1\files-1.1\lifecycle-viewmodel-2.3.1.aar\8cfbc21e94e96a3980fddf2476cda747\AndroidManifest.xml:20:5-22:41
MERGED from [androidx.lifecycle:lifecycle-viewmodel:2.3.1] C:\Users\Axon_002\.gradle\caches\transforms-1\files-1.1\lifecycle-viewmodel-2.3.1.aar\8cfbc21e94e96a3980fddf2476cda747\AndroidManifest.xml:20:5-22:41
MERGED from [androidx.cardview:cardview:1.0.0] C:\Users\Axon_002\.gradle\caches\transforms-1\files-1.1\cardview-1.0.0.aar\5bda80eb9eec5512eb51f359573915e9\AndroidManifest.xml:20:5-44
MERGED from [androidx.cardview:cardview:1.0.0] C:\Users\Axon_002\.gradle\caches\transforms-1\files-1.1\cardview-1.0.0.aar\5bda80eb9eec5512eb51f359573915e9\AndroidManifest.xml:20:5-44
MERGED from [androidx.versionedparcelable:versionedparcelable:1.1.1] C:\Users\Axon_002\.gradle\caches\transforms-1\files-1.1\versionedparcelable-1.1.1.aar\b28d7c2ce8c641cce346a0e8cf244678\AndroidManifest.xml:20:5-22:41
MERGED from [androidx.versionedparcelable:versionedparcelable:1.1.1] C:\Users\Axon_002\.gradle\caches\transforms-1\files-1.1\versionedparcelable-1.1.1.aar\b28d7c2ce8c641cce346a0e8cf244678\AndroidManifest.xml:20:5-22:41
MERGED from [androidx.tracing:tracing:1.0.0] C:\Users\Axon_002\.gradle\caches\transforms-1\files-1.1\tracing-1.0.0.aar\a198ebc6c9353c6671b5af0c0fe423ad\AndroidManifest.xml:20:5-22:41
MERGED from [androidx.tracing:tracing:1.0.0] C:\Users\Axon_002\.gradle\caches\transforms-1\files-1.1\tracing-1.0.0.aar\a198ebc6c9353c6671b5af0c0fe423ad\AndroidManifest.xml:20:5-22:41
MERGED from [androidx.lifecycle:lifecycle-livedata:2.0.0] C:\Users\Axon_002\.gradle\caches\transforms-1\files-1.1\lifecycle-livedata-2.0.0.aar\f03137644e9d46f4c07580af02d2b6b2\AndroidManifest.xml:20:5-44
MERGED from [androidx.lifecycle:lifecycle-livedata:2.0.0] C:\Users\Axon_002\.gradle\caches\transforms-1\files-1.1\lifecycle-livedata-2.0.0.aar\f03137644e9d46f4c07580af02d2b6b2\AndroidManifest.xml:20:5-44
MERGED from [androidx.lifecycle:lifecycle-livedata-core:2.3.1] C:\Users\Axon_002\.gradle\caches\transforms-1\files-1.1\lifecycle-livedata-core-2.3.1.aar\38339650193c5bf92392c2da4f232426\AndroidManifest.xml:20:5-22:41
MERGED from [androidx.lifecycle:lifecycle-livedata-core:2.3.1] C:\Users\Axon_002\.gradle\caches\transforms-1\files-1.1\lifecycle-livedata-core-2.3.1.aar\38339650193c5bf92392c2da4f232426\AndroidManifest.xml:20:5-22:41
MERGED from [androidx.arch.core:core-runtime:2.1.0] C:\Users\Axon_002\.gradle\caches\transforms-1\files-1.1\core-runtime-2.1.0.aar\a95d382fa6218e42ef8c321eb85cf20f\AndroidManifest.xml:20:5-22:41
MERGED from [androidx.arch.core:core-runtime:2.1.0] C:\Users\Axon_002\.gradle\caches\transforms-1\files-1.1\core-runtime-2.1.0.aar\a95d382fa6218e42ef8c321eb85cf20f\AndroidManifest.xml:20:5-22:41
MERGED from [androidx.interpolator:interpolator:1.0.0] C:\Users\Axon_002\.gradle\caches\transforms-1\files-1.1\interpolator-1.0.0.aar\d1476559b699a759ea9f8850a45e0f20\AndroidManifest.xml:20:5-44
MERGED from [androidx.interpolator:interpolator:1.0.0] C:\Users\Axon_002\.gradle\caches\transforms-1\files-1.1\interpolator-1.0.0.aar\d1476559b699a759ea9f8850a45e0f20\AndroidManifest.xml:20:5-44
MERGED from [androidx.documentfile:documentfile:1.0.0] C:\Users\Axon_002\.gradle\caches\transforms-1\files-1.1\documentfile-1.0.0.aar\2d0a0d292c487a8e8e2b3c3fd4252c55\AndroidManifest.xml:20:5-44
MERGED from [androidx.documentfile:documentfile:1.0.0] C:\Users\Axon_002\.gradle\caches\transforms-1\files-1.1\documentfile-1.0.0.aar\2d0a0d292c487a8e8e2b3c3fd4252c55\AndroidManifest.xml:20:5-44
MERGED from [androidx.localbroadcastmanager:localbroadcastmanager:1.0.0] C:\Users\Axon_002\.gradle\caches\transforms-1\files-1.1\localbroadcastmanager-1.0.0.aar\13bd6670bd244a1aea54aed213272498\AndroidManifest.xml:20:5-44
MERGED from [androidx.localbroadcastmanager:localbroadcastmanager:1.0.0] C:\Users\Axon_002\.gradle\caches\transforms-1\files-1.1\localbroadcastmanager-1.0.0.aar\13bd6670bd244a1aea54aed213272498\AndroidManifest.xml:20:5-44
MERGED from [androidx.print:print:1.0.0] C:\Users\Axon_002\.gradle\caches\transforms-1\files-1.1\print-1.0.0.aar\b6a14b55f1aee4392f2799bb6e936003\AndroidManifest.xml:20:5-44
MERGED from [androidx.print:print:1.0.0] C:\Users\Axon_002\.gradle\caches\transforms-1\files-1.1\print-1.0.0.aar\b6a14b55f1aee4392f2799bb6e936003\AndroidManifest.xml:20:5-44
MERGED from [androidx.annotation:annotation-experimental:1.0.0] C:\Users\Axon_002\.gradle\caches\transforms-1\files-1.1\annotation-experimental-1.0.0.aar\ea2876fdf52ec84fc5048e5e329e46ff\AndroidManifest.xml:20:5-22:41
MERGED from [androidx.annotation:annotation-experimental:1.0.0] C:\Users\Axon_002\.gradle\caches\transforms-1\files-1.1\annotation-experimental-1.0.0.aar\ea2876fdf52ec84fc5048e5e329e46ff\AndroidManifest.xml:20:5-22:41
INJECTED from G:\Meet\AndroidDeme\FacebookAdDemo\app\src\main\AndroidManifest.xml
INJECTED from G:\Meet\AndroidDeme\FacebookAdDemo\app\src\main\AndroidManifest.xml
	android:targetSdkVersion
		INJECTED from G:\Meet\AndroidDeme\FacebookAdDemo\app\src\main\AndroidManifest.xml
		ADDED from G:\Meet\AndroidDeme\FacebookAdDemo\app\src\main\AndroidManifest.xml
		INJECTED from G:\Meet\AndroidDeme\FacebookAdDemo\app\src\main\AndroidManifest.xml
	android:minSdkVersion
		INJECTED from G:\Meet\AndroidDeme\FacebookAdDemo\app\src\main\AndroidManifest.xml
		ADDED from G:\Meet\AndroidDeme\FacebookAdDemo\app\src\main\AndroidManifest.xml
		INJECTED from G:\Meet\AndroidDeme\FacebookAdDemo\app\src\main\AndroidManifest.xml
uses-permission#android.permission.INTERNET
ADDED from [com.facebook.android:audience-network-sdk:5.9.1] C:\Users\Axon_002\.gradle\caches\transforms-1\files-1.1\jetified-audience-network-sdk-5.9.1.aar\6432c1318a030ba8ce9fac0dc0a6dfde\AndroidManifest.xml:11:5-67
	android:name
		ADDED from [com.facebook.android:audience-network-sdk:5.9.1] C:\Users\Axon_002\.gradle\caches\transforms-1\files-1.1\jetified-audience-network-sdk-5.9.1.aar\6432c1318a030ba8ce9fac0dc0a6dfde\AndroidManifest.xml:11:22-64
uses-permission#android.permission.ACCESS_NETWORK_STATE
ADDED from [com.facebook.android:audience-network-sdk:5.9.1] C:\Users\Axon_002\.gradle\caches\transforms-1\files-1.1\jetified-audience-network-sdk-5.9.1.aar\6432c1318a030ba8ce9fac0dc0a6dfde\AndroidManifest.xml:12:5-79
	android:name
		ADDED from [com.facebook.android:audience-network-sdk:5.9.1] C:\Users\Axon_002\.gradle\caches\transforms-1\files-1.1\jetified-audience-network-sdk-5.9.1.aar\6432c1318a030ba8ce9fac0dc0a6dfde\AndroidManifest.xml:12:22-76
activity#com.facebook.ads.AudienceNetworkActivity
ADDED from [com.facebook.android:audience-network-sdk:5.9.1] C:\Users\Axon_002\.gradle\caches\transforms-1\files-1.1\jetified-audience-network-sdk-5.9.1.aar\6432c1318a030ba8ce9fac0dc0a6dfde\AndroidManifest.xml:15:9-19:75
	android:exported
		ADDED from [com.facebook.android:audience-network-sdk:5.9.1] C:\Users\Axon_002\.gradle\caches\transforms-1\files-1.1\jetified-audience-network-sdk-5.9.1.aar\6432c1318a030ba8ce9fac0dc0a6dfde\AndroidManifest.xml:18:13-37
	android:configChanges
		ADDED from [com.facebook.android:audience-network-sdk:5.9.1] C:\Users\Axon_002\.gradle\caches\transforms-1\files-1.1\jetified-audience-network-sdk-5.9.1.aar\6432c1318a030ba8ce9fac0dc0a6dfde\AndroidManifest.xml:17:13-74
	android:theme
		ADDED from [com.facebook.android:audience-network-sdk:5.9.1] C:\Users\Axon_002\.gradle\caches\transforms-1\files-1.1\jetified-audience-network-sdk-5.9.1.aar\6432c1318a030ba8ce9fac0dc0a6dfde\AndroidManifest.xml:19:13-72
	android:name
		ADDED from [com.facebook.android:audience-network-sdk:5.9.1] C:\Users\Axon_002\.gradle\caches\transforms-1\files-1.1\jetified-audience-network-sdk-5.9.1.aar\6432c1318a030ba8ce9fac0dc0a6dfde\AndroidManifest.xml:16:13-68
provider#com.facebook.ads.AudienceNetworkContentProvider
ADDED from [com.facebook.android:audience-network-sdk:5.9.1] C:\Users\Axon_002\.gradle\caches\transforms-1\files-1.1\jetified-audience-network-sdk-5.9.1.aar\6432c1318a030ba8ce9fac0dc0a6dfde\AndroidManifest.xml:21:9-24:40
	android:authorities
		ADDED from [com.facebook.android:audience-network-sdk:5.9.1] C:\Users\Axon_002\.gradle\caches\transforms-1\files-1.1\jetified-audience-network-sdk-5.9.1.aar\6432c1318a030ba8ce9fac0dc0a6dfde\AndroidManifest.xml:23:13-82
	android:exported
		ADDED from [com.facebook.android:audience-network-sdk:5.9.1] C:\Users\Axon_002\.gradle\caches\transforms-1\files-1.1\jetified-audience-network-sdk-5.9.1.aar\6432c1318a030ba8ce9fac0dc0a6dfde\AndroidManifest.xml:24:13-37
	android:name
		ADDED from [com.facebook.android:audience-network-sdk:5.9.1] C:\Users\Axon_002\.gradle\caches\transforms-1\files-1.1\jetified-audience-network-sdk-5.9.1.aar\6432c1318a030ba8ce9fac0dc0a6dfde\AndroidManifest.xml:22:13-75
meta-data#com.google.android.gms.version
ADDED from [com.google.android.gms:play-services-basement:11.0.4] C:\Users\Axon_002\.gradle\caches\transforms-1\files-1.1\jetified-play-services-basement-11.0.4.aar\d3b69b5119ab2525f9b9b9f4f73c155d\AndroidManifest.xml:20:9-121
	android:value
		ADDED from [com.google.android.gms:play-services-basement:11.0.4] C:\Users\Axon_002\.gradle\caches\transforms-1\files-1.1\jetified-play-services-basement-11.0.4.aar\d3b69b5119ab2525f9b9b9f4f73c155d\AndroidManifest.xml:20:66-119
	android:name
		ADDED from [com.google.android.gms:play-services-basement:11.0.4] C:\Users\Axon_002\.gradle\caches\transforms-1\files-1.1\jetified-play-services-basement-11.0.4.aar\d3b69b5119ab2525f9b9b9f4f73c155d\AndroidManifest.xml:20:20-65
